{
    "repositories": [
        {
            "type": "package",
            "package": {
                "name": "smarty/smarty",
                "version": "3.1.7",
                "dist": {
                    "url": "http://www.smarty.net/files/Smarty-3.1.7.zip",
                    "type": "zip"
                },
                "source": {
                    "url": "http://smarty-php.googlecode.com/svn/",
                    "type": "svn",
                    "reference": "tags/Smarty_3_1_7/distribution/"
                },
                "autoload": {
                    "classmap": ["libs/"]
                }
            }
        }
    ],
    "require": {
        "smarty/smarty": "3.1.*"
    }
}